^C:\USERS\ADONIS\DOCUMENTS\VISUAL STUDIO 2015\PROJECTS\SPIKE1\SPIKE1\SPIKE1.CPP|C:\USERS\ADONIS\DOCUMENTS\VISUAL STUDIO 2015\PROJECTS\SPIKE1\SPIKE1\STDAFX.CPP
C:\USERS\ADONIS\DOCUMENTS\VISUAL STUDIO 2015\PROJECTS\SPIKE1\SPIKE1\DEBUG\VC140.PDB
C:\USERS\ADONIS\DOCUMENTS\VISUAL STUDIO 2015\PROJECTS\SPIKE1\SPIKE1\DEBUG\VC140.IDB
C:\USERS\ADONIS\DOCUMENTS\VISUAL STUDIO 2015\PROJECTS\SPIKE1\SPIKE1\DEBUG\SPIKE1.OBJ
C:\USERS\ADONIS\DOCUMENTS\VISUAL STUDIO 2015\PROJECTS\SPIKE1\SPIKE1\DEBUG\STDAFX.OBJ
^C:\USERS\ADONIS\DOCUMENTS\VISUAL STUDIO 2015\PROJECTS\SPIKE1\SPIKE1\SPIKE1.CPP
C:\USERS\ADONIS\DOCUMENTS\VISUAL STUDIO 2015\PROJECTS\SPIKE1\SPIKE1\DEBUG\VC140.PDB
C:\USERS\ADONIS\DOCUMENTS\VISUAL STUDIO 2015\PROJECTS\SPIKE1\SPIKE1\DEBUG\VC140.IDB
C:\USERS\ADONIS\DOCUMENTS\VISUAL STUDIO 2015\PROJECTS\SPIKE1\SPIKE1\DEBUG\SPIKE1.OBJ
^C:\USERS\ADONIS\DOCUMENTS\VISUAL STUDIO 2015\PROJECTS\SPIKE1\SPIKE1\STDAFX.CPP
C:\USERS\ADONIS\DOCUMENTS\VISUAL STUDIO 2015\PROJECTS\SPIKE1\SPIKE1\DEBUG\VC140.PDB
^C:\USERS\ADONIS\DOCUMENTS\UNI\GAMES PROGRAMMING\REPO\SPIKE1\SPIKE1\SPIKE1.CPP|C:\USERS\ADONIS\DOCUMENTS\UNI\GAMES PROGRAMMING\REPO\SPIKE1\SPIKE1\STDAFX.CPP
C:\USERS\ADONIS\DOCUMENTS\UNI\GAMES PROGRAMMING\REPO\SPIKE1\SPIKE1\DEBUG\VC140.PDB
C:\USERS\ADONIS\DOCUMENTS\UNI\GAMES PROGRAMMING\REPO\SPIKE1\SPIKE1\DEBUG\VC140.IDB
C:\USERS\ADONIS\DOCUMENTS\UNI\GAMES PROGRAMMING\REPO\SPIKE1\SPIKE1\DEBUG\SPIKE1.OBJ
C:\USERS\ADONIS\DOCUMENTS\UNI\GAMES PROGRAMMING\REPO\SPIKE1\SPIKE1\DEBUG\STDAFX.OBJ
^C:\USERS\ADONIS\DOCUMENTS\UNI\GAMES PROGRAMMING\REPO\SPIKE1\SPIKE1\SPIKE1.CPP
C:\USERS\ADONIS\DOCUMENTS\UNI\GAMES PROGRAMMING\REPO\SPIKE1\SPIKE1\DEBUG\VC140.PDB
C:\USERS\ADONIS\DOCUMENTS\UNI\GAMES PROGRAMMING\REPO\SPIKE1\SPIKE1\DEBUG\VC140.IDB
C:\USERS\ADONIS\DOCUMENTS\UNI\GAMES PROGRAMMING\REPO\SPIKE1\SPIKE1\DEBUG\SPIKE1.OBJ
^C:\USERS\ADONIS\DOCUMENTS\UNI\GAMES PROGRAMMING\REPO\SPIKE1\SPIKE1\STDAFX.CPP
C:\USERS\ADONIS\DOCUMENTS\UNI\GAMES PROGRAMMING\REPO\SPIKE1\SPIKE1\DEBUG\VC140.PDB
