^C:\USERS\ADONIS\DOCUMENTS\UNI\GAMES PROGRAMMING\REPO\SPIKE13\SFML_TUTORIAL\DEBUG\MAIN.OBJ
C:\WINDOWS\GLOBALIZATION\SORTING\SORTDEFAULT.NLS
C:\USERS\ADONIS\DOCUMENTS\UNI\GAMES PROGRAMMING\SFML-2.4.2\LIB\SFML-GRAPHICS-D.LIB
C:\USERS\ADONIS\DOCUMENTS\UNI\GAMES PROGRAMMING\SFML-2.4.2\LIB\SFML-AUDIO-D.LIB
C:\USERS\ADONIS\DOCUMENTS\UNI\GAMES PROGRAMMING\SFML-2.4.2\LIB\SFML-NETWORK-D.LIB
C:\USERS\ADONIS\DOCUMENTS\UNI\GAMES PROGRAMMING\SFML-2.4.2\LIB\SFML-WINDOW-D.LIB
C:\USERS\ADONIS\DOCUMENTS\UNI\GAMES PROGRAMMING\SFML-2.4.2\LIB\SFML-SYSTEM-D.LIB
C:\PROGRAM FILES (X86)\WINDOWS KITS\8.1\LIB\WINV6.3\UM\X86\KERNEL32.LIB
C:\PROGRAM FILES (X86)\WINDOWS KITS\8.1\LIB\WINV6.3\UM\X86\USER32.LIB
C:\PROGRAM FILES (X86)\WINDOWS KITS\8.1\LIB\WINV6.3\UM\X86\GDI32.LIB
C:\PROGRAM FILES (X86)\WINDOWS KITS\8.1\LIB\WINV6.3\UM\X86\WINSPOOL.LIB
C:\PROGRAM FILES (X86)\WINDOWS KITS\8.1\LIB\WINV6.3\UM\X86\COMDLG32.LIB
C:\PROGRAM FILES (X86)\WINDOWS KITS\8.1\LIB\WINV6.3\UM\X86\ADVAPI32.LIB
C:\PROGRAM FILES (X86)\WINDOWS KITS\8.1\LIB\WINV6.3\UM\X86\SHELL32.LIB
C:\PROGRAM FILES (X86)\WINDOWS KITS\8.1\LIB\WINV6.3\UM\X86\OLE32.LIB
C:\PROGRAM FILES (X86)\WINDOWS KITS\8.1\LIB\WINV6.3\UM\X86\OLEAUT32.LIB
C:\PROGRAM FILES (X86)\WINDOWS KITS\8.1\LIB\WINV6.3\UM\X86\UUID.LIB
C:\PROGRAM FILES (X86)\WINDOWS KITS\8.1\LIB\WINV6.3\UM\X86\ODBC32.LIB
C:\PROGRAM FILES (X86)\WINDOWS KITS\8.1\LIB\WINV6.3\UM\X86\ODBCCP32.LIB
C:\USERS\ADONIS\DOCUMENTS\UNI\GAMES PROGRAMMING\REPO\SPIKE13\SFML_TUTORIAL\DEBUG\MAIN.OBJ
C:\WINDOWS\SYSTEM32\TZRES.DLL
C:\PROGRAM FILES (X86)\MICROSOFT VISUAL STUDIO 14.0\VC\LIB\MSVCPRTD.LIB
C:\PROGRAM FILES (X86)\MICROSOFT VISUAL STUDIO 14.0\VC\LIB\MSVCRTD.LIB
C:\PROGRAM FILES (X86)\MICROSOFT VISUAL STUDIO 14.0\VC\LIB\OLDNAMES.LIB
C:\PROGRAM FILES (X86)\MICROSOFT VISUAL STUDIO 14.0\VC\LIB\VCRUNTIMED.LIB
C:\PROGRAM FILES (X86)\WINDOWS KITS\10\LIB\10.0.10150.0\UCRT\X86\UCRTD.LIB
