^C:\USERS\ADONIS\DOCUMENTS\UNI\GAMES PROGRAMMING\REPO\SPIKE5ATTEMPT3\SPIKE5ATTEMPT3\DEBUG\INVENTORYCLASS.OBJ|C:\USERS\ADONIS\DOCUMENTS\UNI\GAMES PROGRAMMING\REPO\SPIKE5ATTEMPT3\SPIKE5ATTEMPT3\DEBUG\ITEMCLASS.OBJ|C:\USERS\ADONIS\DOCUMENTS\UNI\GAMES PROGRAMMING\REPO\SPIKE5ATTEMPT3\SPIKE5ATTEMPT3\DEBUG\SPIKE5ATTEMPT3.OBJ|C:\USERS\ADONIS\DOCUMENTS\UNI\GAMES PROGRAMMING\REPO\SPIKE5ATTEMPT3\SPIKE5ATTEMPT3\DEBUG\STDAFX.OBJ
/OUT:"C:\USERS\ADONIS\DOCUMENTS\UNI\GAMES PROGRAMMING\REPO\SPIKE5ATTEMPT3\DEBUG\SPIKE5ATTEMPT3.EXE" /INCREMENTAL /NOLOGO KERNEL32.LIB USER32.LIB GDI32.LIB WINSPOOL.LIB COMDLG32.LIB ADVAPI32.LIB SHELL32.LIB OLE32.LIB OLEAUT32.LIB UUID.LIB ODBC32.LIB ODBCCP32.LIB /MANIFEST /MANIFESTUAC:"level='asInvoker' uiAccess='false'" /manifest:embed /Debug /PDB:"C:\USERS\ADONIS\DOCUMENTS\UNI\GAMES PROGRAMMING\REPO\SPIKE5ATTEMPT3\DEBUG\SPIKE5ATTEMPT3.PDB" /SUBSYSTEM:CONSOLE /TLBID:1 /DYNAMICBASE /NXCOMPAT /IMPLIB:"C:\USERS\ADONIS\DOCUMENTS\UNI\GAMES PROGRAMMING\REPO\SPIKE5ATTEMPT3\DEBUG\SPIKE5ATTEMPT3.LIB" /MACHINE:X86 DEBUG\INVENTORYCLASS.OBJDEBUG\ITEMCLASS.OBJDEBUG\SPIKE5ATTEMPT3.OBJDEBUG\STDAFX.OBJ
^C:\USERS\ADONIS\DOCUMENTS\UNI\GAMES PROGRAMMING\REPO\SPIKE 6\SPIKE5ATTEMPT3\DEBUG\FILEREAD.OBJ|C:\USERS\ADONIS\DOCUMENTS\UNI\GAMES PROGRAMMING\REPO\SPIKE 6\SPIKE5ATTEMPT3\DEBUG\GAMESTAGE.OBJ|C:\USERS\ADONIS\DOCUMENTS\UNI\GAMES PROGRAMMING\REPO\SPIKE 6\SPIKE5ATTEMPT3\DEBUG\INVENTORYCLASS.OBJ|C:\USERS\ADONIS\DOCUMENTS\UNI\GAMES PROGRAMMING\REPO\SPIKE 6\SPIKE5ATTEMPT3\DEBUG\ITEMCLASS.OBJ|C:\USERS\ADONIS\DOCUMENTS\UNI\GAMES PROGRAMMING\REPO\SPIKE 6\SPIKE5ATTEMPT3\DEBUG\SPIKE6.OBJ|C:\USERS\ADONIS\DOCUMENTS\UNI\GAMES PROGRAMMING\REPO\SPIKE 6\SPIKE5ATTEMPT3\DEBUG\STAGESTATE.OBJ|C:\USERS\ADONIS\DOCUMENTS\UNI\GAMES PROGRAMMING\REPO\SPIKE 6\SPIKE5ATTEMPT3\DEBUG\STDAFX.OBJ
/OUT:"C:\USERS\ADONIS\DOCUMENTS\UNI\GAMES PROGRAMMING\REPO\SPIKE 6\DEBUG\SPIKE5ATTEMPT3.EXE" /INCREMENTAL /NOLOGO KERNEL32.LIB USER32.LIB GDI32.LIB WINSPOOL.LIB COMDLG32.LIB ADVAPI32.LIB SHELL32.LIB OLE32.LIB OLEAUT32.LIB UUID.LIB ODBC32.LIB ODBCCP32.LIB /MANIFEST /MANIFESTUAC:"level='asInvoker' uiAccess='false'" /manifest:embed /Debug /PDB:"C:\USERS\ADONIS\DOCUMENTS\UNI\GAMES PROGRAMMING\REPO\SPIKE 6\DEBUG\SPIKE5ATTEMPT3.PDB" /SUBSYSTEM:CONSOLE /TLBID:1 /DYNAMICBASE /NXCOMPAT /IMPLIB:"C:\USERS\ADONIS\DOCUMENTS\UNI\GAMES PROGRAMMING\REPO\SPIKE 6\DEBUG\SPIKE5ATTEMPT3.LIB" /MACHINE:X86 DEBUG\FILEREAD.OBJDEBUG\GAMESTAGE.OBJDEBUG\INVENTORYCLASS.OBJDEBUG\ITEMCLASS.OBJDEBUG\SPIKE6.OBJDEBUG\STAGESTATE.OBJDEBUG\STDAFX.OBJ
