^C:\USERS\ADONIS\DOCUMENTS\VISUAL STUDIO 2015\PROJECTS\SFML_TUTORIAL\SFML_TUTORIAL\MAIN.CPP
C:\USERS\ADONIS\DOCUMENTS\VISUAL STUDIO 2015\PROJECTS\SFML_TUTORIAL\SFML_TUTORIAL\DEBUG\VC140.PDB
C:\USERS\ADONIS\DOCUMENTS\VISUAL STUDIO 2015\PROJECTS\SFML_TUTORIAL\SFML_TUTORIAL\DEBUG\VC140.IDB
C:\USERS\ADONIS\DOCUMENTS\VISUAL STUDIO 2015\PROJECTS\SFML_TUTORIAL\SFML_TUTORIAL\DEBUG\MAIN.OBJ
