﻿  Spike3.cpp
  Spike3.vcxproj -> C:\Users\Adonis\Documents\Uni\Games Programming\Repo\Spike3\Debug\Spike3.exe
  Spike3.vcxproj -> C:\Users\Adonis\Documents\Uni\Games Programming\Repo\Spike3\Debug\Spike3.pdb (Full PDB)
