^C:\USERS\ADONIS\DOCUMENTS\UNI\GAMES PROGRAMMING\REPO\SPIKE 9\SPIKE5ATTEMPT3\ENEMIES.CPP|C:\USERS\ADONIS\DOCUMENTS\UNI\GAMES PROGRAMMING\REPO\SPIKE 9\SPIKE5ATTEMPT3\ENTITY.CPP|C:\USERS\ADONIS\DOCUMENTS\UNI\GAMES PROGRAMMING\REPO\SPIKE 9\SPIKE5ATTEMPT3\FILEREAD.CPP|C:\USERS\ADONIS\DOCUMENTS\UNI\GAMES PROGRAMMING\REPO\SPIKE 9\SPIKE5ATTEMPT3\GAMESTAGE.CPP|C:\USERS\ADONIS\DOCUMENTS\UNI\GAMES PROGRAMMING\REPO\SPIKE 9\SPIKE5ATTEMPT3\INPUTCLASS.CPP|C:\USERS\ADONIS\DOCUMENTS\UNI\GAMES PROGRAMMING\REPO\SPIKE 9\SPIKE5ATTEMPT3\INVENTORYCLASS.CPP|C:\USERS\ADONIS\DOCUMENTS\UNI\GAMES PROGRAMMING\REPO\SPIKE 9\SPIKE5ATTEMPT3\ITEMCLASS.CPP|C:\USERS\ADONIS\DOCUMENTS\UNI\GAMES PROGRAMMING\REPO\SPIKE 9\SPIKE5ATTEMPT3\MESSAGE.CPP|C:\USERS\ADONIS\DOCUMENTS\UNI\GAMES PROGRAMMING\REPO\SPIKE 9\SPIKE5ATTEMPT3\NOUN.CPP|C:\USERS\ADONIS\DOCUMENTS\UNI\GAMES PROGRAMMING\REPO\SPIKE 9\SPIKE5ATTEMPT3\PLAYER.CPP|C:\USERS\ADONIS\DOCUMENTS\UNI\GAMES PROGRAMMING\REPO\SPIKE 9\SPIKE5ATTEMPT3\SPIKE 9.CPP|C:\USERS\ADONIS\DOCUMENTS\UNI\GAMES PROGRAMMING\REPO\SPIKE 9\SPIKE5ATTEMPT3\STAGESTATE.CPP|C:\USERS\ADONIS\DOCUMENTS\UNI\GAMES PROGRAMMING\REPO\SPIKE 9\SPIKE5ATTEMPT3\STDAFX.CPP|C:\USERS\ADONIS\DOCUMENTS\UNI\GAMES PROGRAMMING\REPO\SPIKE 9\SPIKE5ATTEMPT3\VERB.CPP
C:\USERS\ADONIS\DOCUMENTS\UNI\GAMES PROGRAMMING\REPO\SPIKE 9\SPIKE5ATTEMPT3\DEBUG\VC140.PDB
C:\USERS\ADONIS\DOCUMENTS\UNI\GAMES PROGRAMMING\REPO\SPIKE 9\SPIKE5ATTEMPT3\DEBUG\VC140.IDB
C:\USERS\ADONIS\DOCUMENTS\UNI\GAMES PROGRAMMING\REPO\SPIKE 9\SPIKE5ATTEMPT3\DEBUG\ENEMIES.OBJ
C:\USERS\ADONIS\DOCUMENTS\UNI\GAMES PROGRAMMING\REPO\SPIKE 9\SPIKE5ATTEMPT3\DEBUG\ENTITY.OBJ
C:\USERS\ADONIS\DOCUMENTS\UNI\GAMES PROGRAMMING\REPO\SPIKE 9\SPIKE5ATTEMPT3\DEBUG\FILEREAD.OBJ
C:\USERS\ADONIS\DOCUMENTS\UNI\GAMES PROGRAMMING\REPO\SPIKE 9\SPIKE5ATTEMPT3\DEBUG\GAMESTAGE.OBJ
C:\USERS\ADONIS\DOCUMENTS\UNI\GAMES PROGRAMMING\REPO\SPIKE 9\SPIKE5ATTEMPT3\DEBUG\INPUTCLASS.OBJ
C:\USERS\ADONIS\DOCUMENTS\UNI\GAMES PROGRAMMING\REPO\SPIKE 9\SPIKE5ATTEMPT3\DEBUG\INVENTORYCLASS.OBJ
C:\USERS\ADONIS\DOCUMENTS\UNI\GAMES PROGRAMMING\REPO\SPIKE 9\SPIKE5ATTEMPT3\DEBUG\ITEMCLASS.OBJ
C:\USERS\ADONIS\DOCUMENTS\UNI\GAMES PROGRAMMING\REPO\SPIKE 9\SPIKE5ATTEMPT3\DEBUG\MESSAGE.OBJ
C:\USERS\ADONIS\DOCUMENTS\UNI\GAMES PROGRAMMING\REPO\SPIKE 9\SPIKE5ATTEMPT3\DEBUG\NOUN.OBJ
C:\USERS\ADONIS\DOCUMENTS\UNI\GAMES PROGRAMMING\REPO\SPIKE 9\SPIKE5ATTEMPT3\DEBUG\PLAYER.OBJ
C:\USERS\ADONIS\DOCUMENTS\UNI\GAMES PROGRAMMING\REPO\SPIKE 9\SPIKE5ATTEMPT3\DEBUG\SPIKE 9.OBJ
C:\USERS\ADONIS\DOCUMENTS\UNI\GAMES PROGRAMMING\REPO\SPIKE 9\SPIKE5ATTEMPT3\DEBUG\STAGESTATE.OBJ
C:\USERS\ADONIS\DOCUMENTS\UNI\GAMES PROGRAMMING\REPO\SPIKE 9\SPIKE5ATTEMPT3\DEBUG\STDAFX.OBJ
C:\USERS\ADONIS\DOCUMENTS\UNI\GAMES PROGRAMMING\REPO\SPIKE 9\SPIKE5ATTEMPT3\DEBUG\VERB.OBJ
^C:\USERS\ADONIS\DOCUMENTS\UNI\GAMES PROGRAMMING\REPO\SPIKE 9\SPIKE5ATTEMPT3\ENEMIES.CPP
C:\USERS\ADONIS\DOCUMENTS\UNI\GAMES PROGRAMMING\REPO\SPIKE 9\SPIKE5ATTEMPT3\DEBUG\VC140.PDB
^C:\USERS\ADONIS\DOCUMENTS\UNI\GAMES PROGRAMMING\REPO\SPIKE 9\SPIKE5ATTEMPT3\ENTITY.CPP
C:\USERS\ADONIS\DOCUMENTS\UNI\GAMES PROGRAMMING\REPO\SPIKE 9\SPIKE5ATTEMPT3\DEBUG\VC140.PDB
^C:\USERS\ADONIS\DOCUMENTS\UNI\GAMES PROGRAMMING\REPO\SPIKE 9\SPIKE5ATTEMPT3\FILEREAD.CPP
C:\USERS\ADONIS\DOCUMENTS\UNI\GAMES PROGRAMMING\REPO\SPIKE 9\SPIKE5ATTEMPT3\DEBUG\VC140.PDB
^C:\USERS\ADONIS\DOCUMENTS\UNI\GAMES PROGRAMMING\REPO\SPIKE 9\SPIKE5ATTEMPT3\GAMESTAGE.CPP
C:\USERS\ADONIS\DOCUMENTS\UNI\GAMES PROGRAMMING\REPO\SPIKE 9\SPIKE5ATTEMPT3\DEBUG\VC140.PDB
^C:\USERS\ADONIS\DOCUMENTS\UNI\GAMES PROGRAMMING\REPO\SPIKE 9\SPIKE5ATTEMPT3\INPUTCLASS.CPP
C:\USERS\ADONIS\DOCUMENTS\UNI\GAMES PROGRAMMING\REPO\SPIKE 9\SPIKE5ATTEMPT3\DEBUG\VC140.PDB
^C:\USERS\ADONIS\DOCUMENTS\UNI\GAMES PROGRAMMING\REPO\SPIKE 9\SPIKE5ATTEMPT3\INVENTORYCLASS.CPP
C:\USERS\ADONIS\DOCUMENTS\UNI\GAMES PROGRAMMING\REPO\SPIKE 9\SPIKE5ATTEMPT3\DEBUG\VC140.PDB
^C:\USERS\ADONIS\DOCUMENTS\UNI\GAMES PROGRAMMING\REPO\SPIKE 9\SPIKE5ATTEMPT3\ITEMCLASS.CPP
C:\USERS\ADONIS\DOCUMENTS\UNI\GAMES PROGRAMMING\REPO\SPIKE 9\SPIKE5ATTEMPT3\DEBUG\VC140.PDB
^C:\USERS\ADONIS\DOCUMENTS\UNI\GAMES PROGRAMMING\REPO\SPIKE 9\SPIKE5ATTEMPT3\MESSAGE.CPP
C:\USERS\ADONIS\DOCUMENTS\UNI\GAMES PROGRAMMING\REPO\SPIKE 9\SPIKE5ATTEMPT3\DEBUG\VC140.PDB
^C:\USERS\ADONIS\DOCUMENTS\UNI\GAMES PROGRAMMING\REPO\SPIKE 9\SPIKE5ATTEMPT3\NOUN.CPP
C:\USERS\ADONIS\DOCUMENTS\UNI\GAMES PROGRAMMING\REPO\SPIKE 9\SPIKE5ATTEMPT3\DEBUG\VC140.PDB
^C:\USERS\ADONIS\DOCUMENTS\UNI\GAMES PROGRAMMING\REPO\SPIKE 9\SPIKE5ATTEMPT3\PLAYER.CPP
C:\USERS\ADONIS\DOCUMENTS\UNI\GAMES PROGRAMMING\REPO\SPIKE 9\SPIKE5ATTEMPT3\DEBUG\VC140.PDB
^C:\USERS\ADONIS\DOCUMENTS\UNI\GAMES PROGRAMMING\REPO\SPIKE 9\SPIKE5ATTEMPT3\SPIKE 9.CPP
C:\USERS\ADONIS\DOCUMENTS\UNI\GAMES PROGRAMMING\REPO\SPIKE 9\SPIKE5ATTEMPT3\DEBUG\VC140.PDB
^C:\USERS\ADONIS\DOCUMENTS\UNI\GAMES PROGRAMMING\REPO\SPIKE 9\SPIKE5ATTEMPT3\STAGESTATE.CPP
C:\USERS\ADONIS\DOCUMENTS\UNI\GAMES PROGRAMMING\REPO\SPIKE 9\SPIKE5ATTEMPT3\DEBUG\VC140.PDB
C:\USERS\ADONIS\DOCUMENTS\UNI\GAMES PROGRAMMING\REPO\SPIKE 9\SPIKE5ATTEMPT3\DEBUG\VC140.IDB
^C:\USERS\ADONIS\DOCUMENTS\UNI\GAMES PROGRAMMING\REPO\SPIKE 9\SPIKE5ATTEMPT3\STDAFX.CPP
C:\USERS\ADONIS\DOCUMENTS\UNI\GAMES PROGRAMMING\REPO\SPIKE 9\SPIKE5ATTEMPT3\DEBUG\VC140.PDB
^C:\USERS\ADONIS\DOCUMENTS\UNI\GAMES PROGRAMMING\REPO\SPIKE 9\SPIKE5ATTEMPT3\VERB.CPP
C:\USERS\ADONIS\DOCUMENTS\UNI\GAMES PROGRAMMING\REPO\SPIKE 9\SPIKE5ATTEMPT3\DEBUG\VC140.PDB
^C:\USERS\ADONIS\DOCUMENTS\UNI\GAMES PROGRAMMING\REPO\SPIKE 9\SPIKE5ATTEMPT3\ENEMIES.CPP|C:\USERS\ADONIS\DOCUMENTS\UNI\GAMES PROGRAMMING\REPO\SPIKE 9\SPIKE5ATTEMPT3\ENTITY.CPP|C:\USERS\ADONIS\DOCUMENTS\UNI\GAMES PROGRAMMING\REPO\SPIKE 9\SPIKE5ATTEMPT3\FILEREAD.CPP|C:\USERS\ADONIS\DOCUMENTS\UNI\GAMES PROGRAMMING\REPO\SPIKE 9\SPIKE5ATTEMPT3\GAMESTAGE.CPP|C:\USERS\ADONIS\DOCUMENTS\UNI\GAMES PROGRAMMING\REPO\SPIKE 9\SPIKE5ATTEMPT3\INVENTORYCLASS.CPP|C:\USERS\ADONIS\DOCUMENTS\UNI\GAMES PROGRAMMING\REPO\SPIKE 9\SPIKE5ATTEMPT3\MESSAGE.CPP|C:\USERS\ADONIS\DOCUMENTS\UNI\GAMES PROGRAMMING\REPO\SPIKE 9\SPIKE5ATTEMPT3\PLAYER.CPP|C:\USERS\ADONIS\DOCUMENTS\UNI\GAMES PROGRAMMING\REPO\SPIKE 9\SPIKE5ATTEMPT3\SPIKE 9.CPP|C:\USERS\ADONIS\DOCUMENTS\UNI\GAMES PROGRAMMING\REPO\SPIKE 9\SPIKE5ATTEMPT3\STAGESTATE.CPP
C:\USERS\ADONIS\DOCUMENTS\UNI\GAMES PROGRAMMING\REPO\SPIKE 9\SPIKE5ATTEMPT3\DEBUG\VC140.PDB
C:\USERS\ADONIS\DOCUMENTS\UNI\GAMES PROGRAMMING\REPO\SPIKE 9\SPIKE5ATTEMPT3\DEBUG\VC140.IDB
C:\USERS\ADONIS\DOCUMENTS\UNI\GAMES PROGRAMMING\REPO\SPIKE 9\SPIKE5ATTEMPT3\DEBUG\MESSAGE.OBJ
C:\USERS\ADONIS\DOCUMENTS\UNI\GAMES PROGRAMMING\REPO\SPIKE 9\SPIKE5ATTEMPT3\DEBUG\ENEMIES.OBJ
C:\USERS\ADONIS\DOCUMENTS\UNI\GAMES PROGRAMMING\REPO\SPIKE 9\SPIKE5ATTEMPT3\DEBUG\ENTITY.OBJ
C:\USERS\ADONIS\DOCUMENTS\UNI\GAMES PROGRAMMING\REPO\SPIKE 9\SPIKE5ATTEMPT3\DEBUG\PLAYER.OBJ
C:\USERS\ADONIS\DOCUMENTS\UNI\GAMES PROGRAMMING\REPO\SPIKE 9\SPIKE5ATTEMPT3\DEBUG\SPIKE 9.OBJ
C:\USERS\ADONIS\DOCUMENTS\UNI\GAMES PROGRAMMING\REPO\SPIKE 9\SPIKE5ATTEMPT3\DEBUG\FILEREAD.OBJ
C:\USERS\ADONIS\DOCUMENTS\UNI\GAMES PROGRAMMING\REPO\SPIKE 9\SPIKE5ATTEMPT3\DEBUG\GAMESTAGE.OBJ
C:\USERS\ADONIS\DOCUMENTS\UNI\GAMES PROGRAMMING\REPO\SPIKE 9\SPIKE5ATTEMPT3\DEBUG\INVENTORYCLASS.OBJ
C:\USERS\ADONIS\DOCUMENTS\UNI\GAMES PROGRAMMING\REPO\SPIKE 9\SPIKE5ATTEMPT3\DEBUG\STAGESTATE.OBJ
^C:\USERS\ADONIS\DOCUMENTS\UNI\GAMES PROGRAMMING\REPO\SPIKE 9\SPIKE5ATTEMPT3\MESSAGE.CPP|C:\USERS\ADONIS\DOCUMENTS\UNI\GAMES PROGRAMMING\REPO\SPIKE 9\SPIKE5ATTEMPT3\STAGESTATE.CPP
C:\USERS\ADONIS\DOCUMENTS\UNI\GAMES PROGRAMMING\REPO\SPIKE 9\SPIKE5ATTEMPT3\DEBUG\VC140.PDB
C:\USERS\ADONIS\DOCUMENTS\UNI\GAMES PROGRAMMING\REPO\SPIKE 9\SPIKE5ATTEMPT3\DEBUG\VC140.IDB
C:\USERS\ADONIS\DOCUMENTS\UNI\GAMES PROGRAMMING\REPO\SPIKE 9\SPIKE5ATTEMPT3\DEBUG\STAGESTATE.OBJ
^C:\USERS\ADONIS\DOCUMENTS\UNI\GAMES PROGRAMMING\REPO\SPIKE 9\SPIKE5ATTEMPT3\ENEMIES.CPP|C:\USERS\ADONIS\DOCUMENTS\UNI\GAMES PROGRAMMING\REPO\SPIKE 9\SPIKE5ATTEMPT3\ENTITY.CPP|C:\USERS\ADONIS\DOCUMENTS\UNI\GAMES PROGRAMMING\REPO\SPIKE 9\SPIKE5ATTEMPT3\FILEREAD.CPP|C:\USERS\ADONIS\DOCUMENTS\UNI\GAMES PROGRAMMING\REPO\SPIKE 9\SPIKE5ATTEMPT3\GAMESTAGE.CPP|C:\USERS\ADONIS\DOCUMENTS\UNI\GAMES PROGRAMMING\REPO\SPIKE 9\SPIKE5ATTEMPT3\INVENTORYCLASS.CPP|C:\USERS\ADONIS\DOCUMENTS\UNI\GAMES PROGRAMMING\REPO\SPIKE 9\SPIKE5ATTEMPT3\PLAYER.CPP|C:\USERS\ADONIS\DOCUMENTS\UNI\GAMES PROGRAMMING\REPO\SPIKE 9\SPIKE5ATTEMPT3\SPIKE 9.CPP|C:\USERS\ADONIS\DOCUMENTS\UNI\GAMES PROGRAMMING\REPO\SPIKE 9\SPIKE5ATTEMPT3\STAGESTATE.CPP
C:\USERS\ADONIS\DOCUMENTS\UNI\GAMES PROGRAMMING\REPO\SPIKE 9\SPIKE5ATTEMPT3\DEBUG\VC140.PDB
C:\USERS\ADONIS\DOCUMENTS\UNI\GAMES PROGRAMMING\REPO\SPIKE 9\SPIKE5ATTEMPT3\DEBUG\VC140.IDB
C:\USERS\ADONIS\DOCUMENTS\UNI\GAMES PROGRAMMING\REPO\SPIKE 9\SPIKE5ATTEMPT3\DEBUG\ENEMIES.OBJ
C:\USERS\ADONIS\DOCUMENTS\UNI\GAMES PROGRAMMING\REPO\SPIKE 9\SPIKE5ATTEMPT3\DEBUG\ENTITY.OBJ
C:\USERS\ADONIS\DOCUMENTS\UNI\GAMES PROGRAMMING\REPO\SPIKE 9\SPIKE5ATTEMPT3\DEBUG\PLAYER.OBJ
C:\USERS\ADONIS\DOCUMENTS\UNI\GAMES PROGRAMMING\REPO\SPIKE 9\SPIKE5ATTEMPT3\DEBUG\SPIKE 9.OBJ
C:\USERS\ADONIS\DOCUMENTS\UNI\GAMES PROGRAMMING\REPO\SPIKE 9\SPIKE5ATTEMPT3\DEBUG\FILEREAD.OBJ
C:\USERS\ADONIS\DOCUMENTS\UNI\GAMES PROGRAMMING\REPO\SPIKE 9\SPIKE5ATTEMPT3\DEBUG\GAMESTAGE.OBJ
C:\USERS\ADONIS\DOCUMENTS\UNI\GAMES PROGRAMMING\REPO\SPIKE 9\SPIKE5ATTEMPT3\DEBUG\INVENTORYCLASS.OBJ
C:\USERS\ADONIS\DOCUMENTS\UNI\GAMES PROGRAMMING\REPO\SPIKE 9\SPIKE5ATTEMPT3\DEBUG\STAGESTATE.OBJ
