^C:\USERS\ADONIS\DOCUMENTS\UNI\GAMES PROGRAMMING\REPO\SPIKE 9\SPIKE5ATTEMPT3\DEBUG\ENEMIES.OBJ|C:\USERS\ADONIS\DOCUMENTS\UNI\GAMES PROGRAMMING\REPO\SPIKE 9\SPIKE5ATTEMPT3\DEBUG\ENTITY.OBJ|C:\USERS\ADONIS\DOCUMENTS\UNI\GAMES PROGRAMMING\REPO\SPIKE 9\SPIKE5ATTEMPT3\DEBUG\FILEREAD.OBJ|C:\USERS\ADONIS\DOCUMENTS\UNI\GAMES PROGRAMMING\REPO\SPIKE 9\SPIKE5ATTEMPT3\DEBUG\GAMESTAGE.OBJ|C:\USERS\ADONIS\DOCUMENTS\UNI\GAMES PROGRAMMING\REPO\SPIKE 9\SPIKE5ATTEMPT3\DEBUG\INPUTCLASS.OBJ|C:\USERS\ADONIS\DOCUMENTS\UNI\GAMES PROGRAMMING\REPO\SPIKE 9\SPIKE5ATTEMPT3\DEBUG\INVENTORYCLASS.OBJ|C:\USERS\ADONIS\DOCUMENTS\UNI\GAMES PROGRAMMING\REPO\SPIKE 9\SPIKE5ATTEMPT3\DEBUG\ITEMCLASS.OBJ|C:\USERS\ADONIS\DOCUMENTS\UNI\GAMES PROGRAMMING\REPO\SPIKE 9\SPIKE5ATTEMPT3\DEBUG\MESSAGE.OBJ|C:\USERS\ADONIS\DOCUMENTS\UNI\GAMES PROGRAMMING\REPO\SPIKE 9\SPIKE5ATTEMPT3\DEBUG\NOUN.OBJ|C:\USERS\ADONIS\DOCUMENTS\UNI\GAMES PROGRAMMING\REPO\SPIKE 9\SPIKE5ATTEMPT3\DEBUG\PLAYER.OBJ|C:\USERS\ADONIS\DOCUMENTS\UNI\GAMES PROGRAMMING\REPO\SPIKE 9\SPIKE5ATTEMPT3\DEBUG\SPIKE 9.OBJ|C:\USERS\ADONIS\DOCUMENTS\UNI\GAMES PROGRAMMING\REPO\SPIKE 9\SPIKE5ATTEMPT3\DEBUG\STAGESTATE.OBJ|C:\USERS\ADONIS\DOCUMENTS\UNI\GAMES PROGRAMMING\REPO\SPIKE 9\SPIKE5ATTEMPT3\DEBUG\STDAFX.OBJ|C:\USERS\ADONIS\DOCUMENTS\UNI\GAMES PROGRAMMING\REPO\SPIKE 9\SPIKE5ATTEMPT3\DEBUG\VERB.OBJ
C:\WINDOWS\GLOBALIZATION\SORTING\SORTDEFAULT.NLS
C:\PROGRAM FILES (X86)\WINDOWS KITS\8.1\LIB\WINV6.3\UM\X86\KERNEL32.LIB
C:\PROGRAM FILES (X86)\WINDOWS KITS\8.1\LIB\WINV6.3\UM\X86\USER32.LIB
C:\PROGRAM FILES (X86)\WINDOWS KITS\8.1\LIB\WINV6.3\UM\X86\GDI32.LIB
C:\PROGRAM FILES (X86)\WINDOWS KITS\8.1\LIB\WINV6.3\UM\X86\WINSPOOL.LIB
C:\PROGRAM FILES (X86)\WINDOWS KITS\8.1\LIB\WINV6.3\UM\X86\COMDLG32.LIB
C:\PROGRAM FILES (X86)\WINDOWS KITS\8.1\LIB\WINV6.3\UM\X86\ADVAPI32.LIB
C:\PROGRAM FILES (X86)\WINDOWS KITS\8.1\LIB\WINV6.3\UM\X86\SHELL32.LIB
C:\PROGRAM FILES (X86)\WINDOWS KITS\8.1\LIB\WINV6.3\UM\X86\OLE32.LIB
C:\PROGRAM FILES (X86)\WINDOWS KITS\8.1\LIB\WINV6.3\UM\X86\OLEAUT32.LIB
C:\PROGRAM FILES (X86)\WINDOWS KITS\8.1\LIB\WINV6.3\UM\X86\UUID.LIB
C:\PROGRAM FILES (X86)\WINDOWS KITS\8.1\LIB\WINV6.3\UM\X86\ODBC32.LIB
C:\PROGRAM FILES (X86)\WINDOWS KITS\8.1\LIB\WINV6.3\UM\X86\ODBCCP32.LIB
C:\USERS\ADONIS\DOCUMENTS\UNI\GAMES PROGRAMMING\REPO\SPIKE 9\SPIKE5ATTEMPT3\DEBUG\ENEMIES.OBJ
C:\USERS\ADONIS\DOCUMENTS\UNI\GAMES PROGRAMMING\REPO\SPIKE 9\SPIKE5ATTEMPT3\DEBUG\ENTITY.OBJ
C:\USERS\ADONIS\DOCUMENTS\UNI\GAMES PROGRAMMING\REPO\SPIKE 9\SPIKE5ATTEMPT3\DEBUG\FILEREAD.OBJ
C:\USERS\ADONIS\DOCUMENTS\UNI\GAMES PROGRAMMING\REPO\SPIKE 9\SPIKE5ATTEMPT3\DEBUG\GAMESTAGE.OBJ
C:\USERS\ADONIS\DOCUMENTS\UNI\GAMES PROGRAMMING\REPO\SPIKE 9\SPIKE5ATTEMPT3\DEBUG\INPUTCLASS.OBJ
C:\USERS\ADONIS\DOCUMENTS\UNI\GAMES PROGRAMMING\REPO\SPIKE 9\SPIKE5ATTEMPT3\DEBUG\INVENTORYCLASS.OBJ
C:\USERS\ADONIS\DOCUMENTS\UNI\GAMES PROGRAMMING\REPO\SPIKE 9\SPIKE5ATTEMPT3\DEBUG\ITEMCLASS.OBJ
C:\USERS\ADONIS\DOCUMENTS\UNI\GAMES PROGRAMMING\REPO\SPIKE 9\SPIKE5ATTEMPT3\DEBUG\MESSAGE.OBJ
C:\USERS\ADONIS\DOCUMENTS\UNI\GAMES PROGRAMMING\REPO\SPIKE 9\SPIKE5ATTEMPT3\DEBUG\NOUN.OBJ
C:\USERS\ADONIS\DOCUMENTS\UNI\GAMES PROGRAMMING\REPO\SPIKE 9\SPIKE5ATTEMPT3\DEBUG\PLAYER.OBJ
C:\USERS\ADONIS\DOCUMENTS\UNI\GAMES PROGRAMMING\REPO\SPIKE 9\SPIKE5ATTEMPT3\DEBUG\SPIKE 9.OBJ
C:\USERS\ADONIS\DOCUMENTS\UNI\GAMES PROGRAMMING\REPO\SPIKE 9\SPIKE5ATTEMPT3\DEBUG\STAGESTATE.OBJ
C:\USERS\ADONIS\DOCUMENTS\UNI\GAMES PROGRAMMING\REPO\SPIKE 9\SPIKE5ATTEMPT3\DEBUG\STDAFX.OBJ
C:\USERS\ADONIS\DOCUMENTS\UNI\GAMES PROGRAMMING\REPO\SPIKE 9\SPIKE5ATTEMPT3\DEBUG\VERB.OBJ
C:\WINDOWS\SYSTEM32\TZRES.DLL
C:\PROGRAM FILES (X86)\MICROSOFT VISUAL STUDIO 14.0\VC\BIN\1033\LINKUI.DLL
C:\PROGRAM FILES (X86)\MICROSOFT VISUAL STUDIO 14.0\VC\LIB\MSVCPRTD.LIB
C:\PROGRAM FILES (X86)\MICROSOFT VISUAL STUDIO 14.0\VC\LIB\MSVCRTD.LIB
C:\PROGRAM FILES (X86)\MICROSOFT VISUAL STUDIO 14.0\VC\LIB\OLDNAMES.LIB
C:\PROGRAM FILES (X86)\MICROSOFT VISUAL STUDIO 14.0\VC\LIB\VCRUNTIMED.LIB
C:\PROGRAM FILES (X86)\WINDOWS KITS\10\LIB\10.0.10240.0\UCRT\X86\UCRTD.LIB
C:\PROGRAM FILES (X86)\WINDOWS KITS\8.1\BIN\X86\RC.EXE
C:\PROGRAM FILES (X86)\MICROSOFT VISUAL STUDIO 14.0\VC\BIN\CVTRES.EXE
C:\WINDOWS\SYSTEM32\RSAENH.DLL
