^C:\USERS\ADONIS\DOCUMENTS\UNI\GAMES PROGRAMMING\REPO\SPIKE 9\SPIKE5ATTEMPT3\DEBUG\ENEMIES.OBJ|C:\USERS\ADONIS\DOCUMENTS\UNI\GAMES PROGRAMMING\REPO\SPIKE 9\SPIKE5ATTEMPT3\DEBUG\ENTITY.OBJ|C:\USERS\ADONIS\DOCUMENTS\UNI\GAMES PROGRAMMING\REPO\SPIKE 9\SPIKE5ATTEMPT3\DEBUG\FILEREAD.OBJ|C:\USERS\ADONIS\DOCUMENTS\UNI\GAMES PROGRAMMING\REPO\SPIKE 9\SPIKE5ATTEMPT3\DEBUG\GAMESTAGE.OBJ|C:\USERS\ADONIS\DOCUMENTS\UNI\GAMES PROGRAMMING\REPO\SPIKE 9\SPIKE5ATTEMPT3\DEBUG\INPUTCLASS.OBJ|C:\USERS\ADONIS\DOCUMENTS\UNI\GAMES PROGRAMMING\REPO\SPIKE 9\SPIKE5ATTEMPT3\DEBUG\INVENTORYCLASS.OBJ|C:\USERS\ADONIS\DOCUMENTS\UNI\GAMES PROGRAMMING\REPO\SPIKE 9\SPIKE5ATTEMPT3\DEBUG\ITEMCLASS.OBJ|C:\USERS\ADONIS\DOCUMENTS\UNI\GAMES PROGRAMMING\REPO\SPIKE 9\SPIKE5ATTEMPT3\DEBUG\MESSAGE.OBJ|C:\USERS\ADONIS\DOCUMENTS\UNI\GAMES PROGRAMMING\REPO\SPIKE 9\SPIKE5ATTEMPT3\DEBUG\NOUN.OBJ|C:\USERS\ADONIS\DOCUMENTS\UNI\GAMES PROGRAMMING\REPO\SPIKE 9\SPIKE5ATTEMPT3\DEBUG\PLAYER.OBJ|C:\USERS\ADONIS\DOCUMENTS\UNI\GAMES PROGRAMMING\REPO\SPIKE 9\SPIKE5ATTEMPT3\DEBUG\SPIKE 9.OBJ|C:\USERS\ADONIS\DOCUMENTS\UNI\GAMES PROGRAMMING\REPO\SPIKE 9\SPIKE5ATTEMPT3\DEBUG\STAGESTATE.OBJ|C:\USERS\ADONIS\DOCUMENTS\UNI\GAMES PROGRAMMING\REPO\SPIKE 9\SPIKE5ATTEMPT3\DEBUG\STDAFX.OBJ|C:\USERS\ADONIS\DOCUMENTS\UNI\GAMES PROGRAMMING\REPO\SPIKE 9\SPIKE5ATTEMPT3\DEBUG\VERB.OBJ
C:\USERS\ADONIS\DOCUMENTS\UNI\GAMES PROGRAMMING\REPO\SPIKE 9\DEBUG\SPIKE 9.ILK
C:\USERS\ADONIS\DOCUMENTS\UNI\GAMES PROGRAMMING\REPO\SPIKE 9\DEBUG\SPIKE 9.EXE
C:\USERS\ADONIS\DOCUMENTS\UNI\GAMES PROGRAMMING\REPO\SPIKE 9\DEBUG\SPIKE 9.PDB
