^C:\USERS\ADONIS\DOCUMENTS\UNI\GAMES PROGRAMMING\REPO\SPIKE4ATTEMPT3\SPIKE4ATTEMPT3\DEBUG\ABOUTCLASS.OBJ|C:\USERS\ADONIS\DOCUMENTS\UNI\GAMES PROGRAMMING\REPO\SPIKE4ATTEMPT3\SPIKE4ATTEMPT3\DEBUG\ADVENTURECLASS.OBJ|C:\USERS\ADONIS\DOCUMENTS\UNI\GAMES PROGRAMMING\REPO\SPIKE4ATTEMPT3\SPIKE4ATTEMPT3\DEBUG\GAME.OBJ|C:\USERS\ADONIS\DOCUMENTS\UNI\GAMES PROGRAMMING\REPO\SPIKE4ATTEMPT3\SPIKE4ATTEMPT3\DEBUG\GAMESTATE.OBJ|C:\USERS\ADONIS\DOCUMENTS\UNI\GAMES PROGRAMMING\REPO\SPIKE4ATTEMPT3\SPIKE4ATTEMPT3\DEBUG\HALLOFFAME.OBJ|C:\USERS\ADONIS\DOCUMENTS\UNI\GAMES PROGRAMMING\REPO\SPIKE4ATTEMPT3\SPIKE4ATTEMPT3\DEBUG\HELPCLASS.OBJ|C:\USERS\ADONIS\DOCUMENTS\UNI\GAMES PROGRAMMING\REPO\SPIKE4ATTEMPT3\SPIKE4ATTEMPT3\DEBUG\HIGHSCORES.OBJ|C:\USERS\ADONIS\DOCUMENTS\UNI\GAMES PROGRAMMING\REPO\SPIKE4ATTEMPT3\SPIKE4ATTEMPT3\DEBUG\MENUEGAMESTATE.OBJ|C:\USERS\ADONIS\DOCUMENTS\UNI\GAMES PROGRAMMING\REPO\SPIKE4ATTEMPT3\SPIKE4ATTEMPT3\DEBUG\SELECTADVENTURE.OBJ|C:\USERS\ADONIS\DOCUMENTS\UNI\GAMES PROGRAMMING\REPO\SPIKE4ATTEMPT3\SPIKE4ATTEMPT3\DEBUG\SPIKE4ATTEMPT3.OBJ|C:\USERS\ADONIS\DOCUMENTS\UNI\GAMES PROGRAMMING\REPO\SPIKE4ATTEMPT3\SPIKE4ATTEMPT3\DEBUG\STDAFX.OBJ
C:\WINDOWS\GLOBALIZATION\SORTING\SORTDEFAULT.NLS
C:\PROGRAM FILES (X86)\WINDOWS KITS\8.1\LIB\WINV6.3\UM\X86\KERNEL32.LIB
C:\PROGRAM FILES (X86)\WINDOWS KITS\8.1\LIB\WINV6.3\UM\X86\USER32.LIB
C:\PROGRAM FILES (X86)\WINDOWS KITS\8.1\LIB\WINV6.3\UM\X86\GDI32.LIB
C:\PROGRAM FILES (X86)\WINDOWS KITS\8.1\LIB\WINV6.3\UM\X86\WINSPOOL.LIB
C:\PROGRAM FILES (X86)\WINDOWS KITS\8.1\LIB\WINV6.3\UM\X86\COMDLG32.LIB
C:\PROGRAM FILES (X86)\WINDOWS KITS\8.1\LIB\WINV6.3\UM\X86\ADVAPI32.LIB
C:\PROGRAM FILES (X86)\WINDOWS KITS\8.1\LIB\WINV6.3\UM\X86\SHELL32.LIB
C:\PROGRAM FILES (X86)\WINDOWS KITS\8.1\LIB\WINV6.3\UM\X86\OLE32.LIB
C:\PROGRAM FILES (X86)\WINDOWS KITS\8.1\LIB\WINV6.3\UM\X86\OLEAUT32.LIB
C:\PROGRAM FILES (X86)\WINDOWS KITS\8.1\LIB\WINV6.3\UM\X86\UUID.LIB
C:\PROGRAM FILES (X86)\WINDOWS KITS\8.1\LIB\WINV6.3\UM\X86\ODBC32.LIB
C:\PROGRAM FILES (X86)\WINDOWS KITS\8.1\LIB\WINV6.3\UM\X86\ODBCCP32.LIB
C:\USERS\ADONIS\DOCUMENTS\UNI\GAMES PROGRAMMING\REPO\SPIKE4ATTEMPT3\SPIKE4ATTEMPT3\DEBUG\ABOUTCLASS.OBJ
C:\USERS\ADONIS\DOCUMENTS\UNI\GAMES PROGRAMMING\REPO\SPIKE4ATTEMPT3\SPIKE4ATTEMPT3\DEBUG\ADVENTURECLASS.OBJ
C:\USERS\ADONIS\DOCUMENTS\UNI\GAMES PROGRAMMING\REPO\SPIKE4ATTEMPT3\SPIKE4ATTEMPT3\DEBUG\GAME.OBJ
C:\USERS\ADONIS\DOCUMENTS\UNI\GAMES PROGRAMMING\REPO\SPIKE4ATTEMPT3\SPIKE4ATTEMPT3\DEBUG\GAMESTATE.OBJ
C:\USERS\ADONIS\DOCUMENTS\UNI\GAMES PROGRAMMING\REPO\SPIKE4ATTEMPT3\SPIKE4ATTEMPT3\DEBUG\HALLOFFAME.OBJ
C:\USERS\ADONIS\DOCUMENTS\UNI\GAMES PROGRAMMING\REPO\SPIKE4ATTEMPT3\SPIKE4ATTEMPT3\DEBUG\HELPCLASS.OBJ
C:\USERS\ADONIS\DOCUMENTS\UNI\GAMES PROGRAMMING\REPO\SPIKE4ATTEMPT3\SPIKE4ATTEMPT3\DEBUG\HIGHSCORES.OBJ
C:\USERS\ADONIS\DOCUMENTS\UNI\GAMES PROGRAMMING\REPO\SPIKE4ATTEMPT3\SPIKE4ATTEMPT3\DEBUG\MENUEGAMESTATE.OBJ
C:\USERS\ADONIS\DOCUMENTS\UNI\GAMES PROGRAMMING\REPO\SPIKE4ATTEMPT3\SPIKE4ATTEMPT3\DEBUG\SELECTADVENTURE.OBJ
C:\USERS\ADONIS\DOCUMENTS\UNI\GAMES PROGRAMMING\REPO\SPIKE4ATTEMPT3\SPIKE4ATTEMPT3\DEBUG\SPIKE4ATTEMPT3.OBJ
C:\USERS\ADONIS\DOCUMENTS\UNI\GAMES PROGRAMMING\REPO\SPIKE4ATTEMPT3\SPIKE4ATTEMPT3\DEBUG\STDAFX.OBJ
C:\WINDOWS\SYSTEM32\TZRES.DLL
C:\PROGRAM FILES (X86)\MICROSOFT VISUAL STUDIO 14.0\VC\LIB\MSVCPRTD.LIB
C:\PROGRAM FILES (X86)\MICROSOFT VISUAL STUDIO 14.0\VC\LIB\MSVCRTD.LIB
C:\PROGRAM FILES (X86)\MICROSOFT VISUAL STUDIO 14.0\VC\LIB\OLDNAMES.LIB
C:\PROGRAM FILES (X86)\MICROSOFT VISUAL STUDIO 14.0\VC\LIB\VCRUNTIMED.LIB
C:\PROGRAM FILES (X86)\WINDOWS KITS\10\LIB\10.0.10150.0\UCRT\X86\UCRTD.LIB
