^C:\USERS\ADONIS\DOCUMENTS\UNI\GAMES PROGRAMMING\REPO\SPIKE15\SFML_TUTORIAL\MAIN.CPP
C:\USERS\ADONIS\DOCUMENTS\UNI\GAMES PROGRAMMING\REPO\SPIKE15\SFML_TUTORIAL\DEBUG\VC140.PDB
C:\USERS\ADONIS\DOCUMENTS\UNI\GAMES PROGRAMMING\REPO\SPIKE15\SFML_TUTORIAL\DEBUG\VC140.IDB
C:\USERS\ADONIS\DOCUMENTS\UNI\GAMES PROGRAMMING\REPO\SPIKE15\SFML_TUTORIAL\DEBUG\MAIN.OBJ
