^C:\USERS\ADONIS\DOCUMENTS\UNI\GAMES PROGRAMMING\REPO\SPIKE5ATTEMPT3\SPIKE5ATTEMPT3\SPIKE5ATTEMPT3.CPP|C:\USERS\ADONIS\DOCUMENTS\UNI\GAMES PROGRAMMING\REPO\SPIKE5ATTEMPT3\SPIKE5ATTEMPT3\STDAFX.CPP
C:\USERS\ADONIS\DOCUMENTS\UNI\GAMES PROGRAMMING\REPO\SPIKE5ATTEMPT3\SPIKE5ATTEMPT3\DEBUG\VC140.PDB
C:\USERS\ADONIS\DOCUMENTS\UNI\GAMES PROGRAMMING\REPO\SPIKE5ATTEMPT3\SPIKE5ATTEMPT3\DEBUG\VC140.IDB
C:\USERS\ADONIS\DOCUMENTS\UNI\GAMES PROGRAMMING\REPO\SPIKE5ATTEMPT3\SPIKE5ATTEMPT3\DEBUG\SPIKE5ATTEMPT3.OBJ
C:\USERS\ADONIS\DOCUMENTS\UNI\GAMES PROGRAMMING\REPO\SPIKE5ATTEMPT3\SPIKE5ATTEMPT3\DEBUG\STDAFX.OBJ
^C:\USERS\ADONIS\DOCUMENTS\UNI\GAMES PROGRAMMING\REPO\SPIKE5ATTEMPT3\SPIKE5ATTEMPT3\SPIKE5ATTEMPT3.CPP
C:\USERS\ADONIS\DOCUMENTS\UNI\GAMES PROGRAMMING\REPO\SPIKE5ATTEMPT3\SPIKE5ATTEMPT3\DEBUG\VC140.PDB
C:\USERS\ADONIS\DOCUMENTS\UNI\GAMES PROGRAMMING\REPO\SPIKE5ATTEMPT3\SPIKE5ATTEMPT3\DEBUG\VC140.IDB
^C:\USERS\ADONIS\DOCUMENTS\UNI\GAMES PROGRAMMING\REPO\SPIKE5ATTEMPT3\SPIKE5ATTEMPT3\STDAFX.CPP
C:\USERS\ADONIS\DOCUMENTS\UNI\GAMES PROGRAMMING\REPO\SPIKE5ATTEMPT3\SPIKE5ATTEMPT3\DEBUG\VC140.PDB
^C:\USERS\ADONIS\DOCUMENTS\UNI\GAMES PROGRAMMING\REPO\SPIKE5ATTEMPT3\SPIKE5ATTEMPT3\ITEMCLASS.CPP|C:\USERS\ADONIS\DOCUMENTS\UNI\GAMES PROGRAMMING\REPO\SPIKE5ATTEMPT3\SPIKE5ATTEMPT3\SPIKE5ATTEMPT3.CPP
C:\USERS\ADONIS\DOCUMENTS\UNI\GAMES PROGRAMMING\REPO\SPIKE5ATTEMPT3\SPIKE5ATTEMPT3\DEBUG\VC140.PDB
C:\USERS\ADONIS\DOCUMENTS\UNI\GAMES PROGRAMMING\REPO\SPIKE5ATTEMPT3\SPIKE5ATTEMPT3\DEBUG\VC140.IDB
C:\USERS\ADONIS\DOCUMENTS\UNI\GAMES PROGRAMMING\REPO\SPIKE5ATTEMPT3\SPIKE5ATTEMPT3\DEBUG\ITEMCLASS.OBJ
C:\USERS\ADONIS\DOCUMENTS\UNI\GAMES PROGRAMMING\REPO\SPIKE5ATTEMPT3\SPIKE5ATTEMPT3\DEBUG\SPIKE5ATTEMPT3.OBJ
^C:\USERS\ADONIS\DOCUMENTS\UNI\GAMES PROGRAMMING\REPO\SPIKE5ATTEMPT3\SPIKE5ATTEMPT3\ITEMCLASS.CPP
C:\USERS\ADONIS\DOCUMENTS\UNI\GAMES PROGRAMMING\REPO\SPIKE5ATTEMPT3\SPIKE5ATTEMPT3\DEBUG\VC140.PDB
C:\USERS\ADONIS\DOCUMENTS\UNI\GAMES PROGRAMMING\REPO\SPIKE5ATTEMPT3\SPIKE5ATTEMPT3\DEBUG\VC140.IDB
^C:\USERS\ADONIS\DOCUMENTS\UNI\GAMES PROGRAMMING\REPO\SPIKE5ATTEMPT3\SPIKE5ATTEMPT3\INVENTORYCLASS.CPP
C:\USERS\ADONIS\DOCUMENTS\UNI\GAMES PROGRAMMING\REPO\SPIKE5ATTEMPT3\SPIKE5ATTEMPT3\DEBUG\VC140.PDB
C:\USERS\ADONIS\DOCUMENTS\UNI\GAMES PROGRAMMING\REPO\SPIKE5ATTEMPT3\SPIKE5ATTEMPT3\DEBUG\VC140.IDB
^C:\USERS\ADONIS\DOCUMENTS\UNI\GAMES PROGRAMMING\REPO\SPIKE 6\SPIKE5ATTEMPT3\GAMESTAGE.CPP|C:\USERS\ADONIS\DOCUMENTS\UNI\GAMES PROGRAMMING\REPO\SPIKE 6\SPIKE5ATTEMPT3\INVENTORYCLASS.CPP|C:\USERS\ADONIS\DOCUMENTS\UNI\GAMES PROGRAMMING\REPO\SPIKE 6\SPIKE5ATTEMPT3\ITEMCLASS.CPP|C:\USERS\ADONIS\DOCUMENTS\UNI\GAMES PROGRAMMING\REPO\SPIKE 6\SPIKE5ATTEMPT3\SPIKE6.CPP|C:\USERS\ADONIS\DOCUMENTS\UNI\GAMES PROGRAMMING\REPO\SPIKE 6\SPIKE5ATTEMPT3\STAGESTATE.CPP|C:\USERS\ADONIS\DOCUMENTS\UNI\GAMES PROGRAMMING\REPO\SPIKE 6\SPIKE5ATTEMPT3\STDAFX.CPP
C:\USERS\ADONIS\DOCUMENTS\UNI\GAMES PROGRAMMING\REPO\SPIKE 6\SPIKE5ATTEMPT3\DEBUG\VC140.PDB
C:\USERS\ADONIS\DOCUMENTS\UNI\GAMES PROGRAMMING\REPO\SPIKE 6\SPIKE5ATTEMPT3\DEBUG\VC140.IDB
C:\USERS\ADONIS\DOCUMENTS\UNI\GAMES PROGRAMMING\REPO\SPIKE 6\SPIKE5ATTEMPT3\DEBUG\INVENTORYCLASS.OBJ
C:\USERS\ADONIS\DOCUMENTS\UNI\GAMES PROGRAMMING\REPO\SPIKE 6\SPIKE5ATTEMPT3\DEBUG\ITEMCLASS.OBJ
C:\USERS\ADONIS\DOCUMENTS\UNI\GAMES PROGRAMMING\REPO\SPIKE 6\SPIKE5ATTEMPT3\DEBUG\STDAFX.OBJ
^C:\USERS\ADONIS\DOCUMENTS\UNI\GAMES PROGRAMMING\REPO\SPIKE 6\SPIKE5ATTEMPT3\GAMESTAGE.CPP
C:\USERS\ADONIS\DOCUMENTS\UNI\GAMES PROGRAMMING\REPO\SPIKE 6\SPIKE5ATTEMPT3\DEBUG\VC140.PDB
^C:\USERS\ADONIS\DOCUMENTS\UNI\GAMES PROGRAMMING\REPO\SPIKE 6\SPIKE5ATTEMPT3\INVENTORYCLASS.CPP
C:\USERS\ADONIS\DOCUMENTS\UNI\GAMES PROGRAMMING\REPO\SPIKE 6\SPIKE5ATTEMPT3\DEBUG\VC140.PDB
^C:\USERS\ADONIS\DOCUMENTS\UNI\GAMES PROGRAMMING\REPO\SPIKE 6\SPIKE5ATTEMPT3\ITEMCLASS.CPP
C:\USERS\ADONIS\DOCUMENTS\UNI\GAMES PROGRAMMING\REPO\SPIKE 6\SPIKE5ATTEMPT3\DEBUG\VC140.PDB
^C:\USERS\ADONIS\DOCUMENTS\UNI\GAMES PROGRAMMING\REPO\SPIKE 6\SPIKE5ATTEMPT3\SPIKE6.CPP
C:\USERS\ADONIS\DOCUMENTS\UNI\GAMES PROGRAMMING\REPO\SPIKE 6\SPIKE5ATTEMPT3\DEBUG\VC140.PDB
^C:\USERS\ADONIS\DOCUMENTS\UNI\GAMES PROGRAMMING\REPO\SPIKE 6\SPIKE5ATTEMPT3\STAGESTATE.CPP
C:\USERS\ADONIS\DOCUMENTS\UNI\GAMES PROGRAMMING\REPO\SPIKE 6\SPIKE5ATTEMPT3\DEBUG\VC140.PDB
C:\USERS\ADONIS\DOCUMENTS\UNI\GAMES PROGRAMMING\REPO\SPIKE 6\SPIKE5ATTEMPT3\DEBUG\VC140.IDB
C:\USERS\ADONIS\DOCUMENTS\UNI\GAMES PROGRAMMING\REPO\SPIKE 6\SPIKE5ATTEMPT3\DEBUG\STAGESTATE.OBJ
^C:\USERS\ADONIS\DOCUMENTS\UNI\GAMES PROGRAMMING\REPO\SPIKE 6\SPIKE5ATTEMPT3\STDAFX.CPP
C:\USERS\ADONIS\DOCUMENTS\UNI\GAMES PROGRAMMING\REPO\SPIKE 6\SPIKE5ATTEMPT3\DEBUG\VC140.PDB
^C:\USERS\ADONIS\DOCUMENTS\UNI\GAMES PROGRAMMING\REPO\SPIKE 6\SPIKE5ATTEMPT3\GAMESTAGE.CPP|C:\USERS\ADONIS\DOCUMENTS\UNI\GAMES PROGRAMMING\REPO\SPIKE 6\SPIKE5ATTEMPT3\SPIKE6.CPP|C:\USERS\ADONIS\DOCUMENTS\UNI\GAMES PROGRAMMING\REPO\SPIKE 6\SPIKE5ATTEMPT3\STAGESTATE.CPP
C:\USERS\ADONIS\DOCUMENTS\UNI\GAMES PROGRAMMING\REPO\SPIKE 6\SPIKE5ATTEMPT3\DEBUG\VC140.PDB
C:\USERS\ADONIS\DOCUMENTS\UNI\GAMES PROGRAMMING\REPO\SPIKE 6\SPIKE5ATTEMPT3\DEBUG\VC140.IDB
C:\USERS\ADONIS\DOCUMENTS\UNI\GAMES PROGRAMMING\REPO\SPIKE 6\SPIKE5ATTEMPT3\DEBUG\SPIKE6.OBJ
C:\USERS\ADONIS\DOCUMENTS\UNI\GAMES PROGRAMMING\REPO\SPIKE 6\SPIKE5ATTEMPT3\DEBUG\GAMESTAGE.OBJ
C:\USERS\ADONIS\DOCUMENTS\UNI\GAMES PROGRAMMING\REPO\SPIKE 6\SPIKE5ATTEMPT3\DEBUG\STAGESTATE.OBJ
^C:\USERS\ADONIS\DOCUMENTS\UNI\GAMES PROGRAMMING\REPO\SPIKE 6\SPIKE5ATTEMPT3\GAMESTAGE.CPP|C:\USERS\ADONIS\DOCUMENTS\UNI\GAMES PROGRAMMING\REPO\SPIKE 6\SPIKE5ATTEMPT3\STAGESTATE.CPP
C:\USERS\ADONIS\DOCUMENTS\UNI\GAMES PROGRAMMING\REPO\SPIKE 6\SPIKE5ATTEMPT3\DEBUG\VC140.PDB
C:\USERS\ADONIS\DOCUMENTS\UNI\GAMES PROGRAMMING\REPO\SPIKE 6\SPIKE5ATTEMPT3\DEBUG\VC140.IDB
^C:\USERS\ADONIS\DOCUMENTS\UNI\GAMES PROGRAMMING\REPO\SPIKE 6\SPIKE5ATTEMPT3\GAMESTAGE.CPP|C:\USERS\ADONIS\DOCUMENTS\UNI\GAMES PROGRAMMING\REPO\SPIKE 6\SPIKE5ATTEMPT3\ITEMCLASS.CPP|C:\USERS\ADONIS\DOCUMENTS\UNI\GAMES PROGRAMMING\REPO\SPIKE 6\SPIKE5ATTEMPT3\SPIKE6.CPP|C:\USERS\ADONIS\DOCUMENTS\UNI\GAMES PROGRAMMING\REPO\SPIKE 6\SPIKE5ATTEMPT3\STAGESTATE.CPP
C:\USERS\ADONIS\DOCUMENTS\UNI\GAMES PROGRAMMING\REPO\SPIKE 6\SPIKE5ATTEMPT3\DEBUG\VC140.PDB
C:\USERS\ADONIS\DOCUMENTS\UNI\GAMES PROGRAMMING\REPO\SPIKE 6\SPIKE5ATTEMPT3\DEBUG\VC140.IDB
C:\USERS\ADONIS\DOCUMENTS\UNI\GAMES PROGRAMMING\REPO\SPIKE 6\SPIKE5ATTEMPT3\DEBUG\ITEMCLASS.OBJ
^C:\USERS\ADONIS\DOCUMENTS\UNI\GAMES PROGRAMMING\REPO\SPIKE 6\SPIKE5ATTEMPT3\FILEREAD.CPP|C:\USERS\ADONIS\DOCUMENTS\UNI\GAMES PROGRAMMING\REPO\SPIKE 6\SPIKE5ATTEMPT3\GAMESTAGE.CPP|C:\USERS\ADONIS\DOCUMENTS\UNI\GAMES PROGRAMMING\REPO\SPIKE 6\SPIKE5ATTEMPT3\SPIKE6.CPP|C:\USERS\ADONIS\DOCUMENTS\UNI\GAMES PROGRAMMING\REPO\SPIKE 6\SPIKE5ATTEMPT3\STAGESTATE.CPP
C:\USERS\ADONIS\DOCUMENTS\UNI\GAMES PROGRAMMING\REPO\SPIKE 6\SPIKE5ATTEMPT3\DEBUG\VC140.PDB
C:\USERS\ADONIS\DOCUMENTS\UNI\GAMES PROGRAMMING\REPO\SPIKE 6\SPIKE5ATTEMPT3\DEBUG\VC140.IDB
C:\USERS\ADONIS\DOCUMENTS\UNI\GAMES PROGRAMMING\REPO\SPIKE 6\SPIKE5ATTEMPT3\DEBUG\FILEREAD.OBJ
C:\USERS\ADONIS\DOCUMENTS\UNI\GAMES PROGRAMMING\REPO\SPIKE 6\SPIKE5ATTEMPT3\DEBUG\STAGESTATE.OBJ
C:\USERS\ADONIS\DOCUMENTS\UNI\GAMES PROGRAMMING\REPO\SPIKE 6\SPIKE5ATTEMPT3\DEBUG\GAMESTAGE.OBJ
^C:\USERS\ADONIS\DOCUMENTS\UNI\GAMES PROGRAMMING\REPO\SPIKE 6\SPIKE5ATTEMPT3\FILEREAD.CPP
C:\USERS\ADONIS\DOCUMENTS\UNI\GAMES PROGRAMMING\REPO\SPIKE 6\SPIKE5ATTEMPT3\DEBUG\VC140.PDB
C:\USERS\ADONIS\DOCUMENTS\UNI\GAMES PROGRAMMING\REPO\SPIKE 6\SPIKE5ATTEMPT3\DEBUG\VC140.IDB
C:\USERS\ADONIS\DOCUMENTS\UNI\GAMES PROGRAMMING\REPO\SPIKE 6\SPIKE5ATTEMPT3\DEBUG\FILEREAD.OBJ
^C:\USERS\ADONIS\DOCUMENTS\UNI\GAMES PROGRAMMING\REPO\SPIKE 6\SPIKE5ATTEMPT3\FILEREAD.CPP|C:\USERS\ADONIS\DOCUMENTS\UNI\GAMES PROGRAMMING\REPO\SPIKE 6\SPIKE5ATTEMPT3\STAGESTATE.CPP
C:\USERS\ADONIS\DOCUMENTS\UNI\GAMES PROGRAMMING\REPO\SPIKE 6\SPIKE5ATTEMPT3\DEBUG\VC140.PDB
C:\USERS\ADONIS\DOCUMENTS\UNI\GAMES PROGRAMMING\REPO\SPIKE 6\SPIKE5ATTEMPT3\DEBUG\VC140.IDB
C:\USERS\ADONIS\DOCUMENTS\UNI\GAMES PROGRAMMING\REPO\SPIKE 6\SPIKE5ATTEMPT3\DEBUG\STAGESTATE.OBJ
C:\USERS\ADONIS\DOCUMENTS\UNI\GAMES PROGRAMMING\REPO\SPIKE 6\SPIKE5ATTEMPT3\DEBUG\FILEREAD.OBJ
