^C:\USERS\ADONIS\DOCUMENTS\UNI\GAMES PROGRAMMING\REPO\SPIKE4ATTEMPT3\SPIKE4ATTEMPT3\GAME.CPP|C:\USERS\ADONIS\DOCUMENTS\UNI\GAMES PROGRAMMING\REPO\SPIKE4ATTEMPT3\SPIKE4ATTEMPT3\GAMESTATE.CPP|C:\USERS\ADONIS\DOCUMENTS\UNI\GAMES PROGRAMMING\REPO\SPIKE4ATTEMPT3\SPIKE4ATTEMPT3\HIGHSCORES.CPP|C:\USERS\ADONIS\DOCUMENTS\UNI\GAMES PROGRAMMING\REPO\SPIKE4ATTEMPT3\SPIKE4ATTEMPT3\MENUEGAMESTATE.CPP|C:\USERS\ADONIS\DOCUMENTS\UNI\GAMES PROGRAMMING\REPO\SPIKE4ATTEMPT3\SPIKE4ATTEMPT3\SPIKE4ATTEMPT3.CPP|C:\USERS\ADONIS\DOCUMENTS\UNI\GAMES PROGRAMMING\REPO\SPIKE4ATTEMPT3\SPIKE4ATTEMPT3\STDAFX.CPP
C:\USERS\ADONIS\DOCUMENTS\UNI\GAMES PROGRAMMING\REPO\SPIKE4ATTEMPT3\SPIKE4ATTEMPT3\DEBUG\VC140.PDB
C:\USERS\ADONIS\DOCUMENTS\UNI\GAMES PROGRAMMING\REPO\SPIKE4ATTEMPT3\SPIKE4ATTEMPT3\DEBUG\VC140.IDB
C:\USERS\ADONIS\DOCUMENTS\UNI\GAMES PROGRAMMING\REPO\SPIKE4ATTEMPT3\SPIKE4ATTEMPT3\DEBUG\GAME.OBJ
C:\USERS\ADONIS\DOCUMENTS\UNI\GAMES PROGRAMMING\REPO\SPIKE4ATTEMPT3\SPIKE4ATTEMPT3\DEBUG\SPIKE4ATTEMPT3.OBJ
C:\USERS\ADONIS\DOCUMENTS\UNI\GAMES PROGRAMMING\REPO\SPIKE4ATTEMPT3\SPIKE4ATTEMPT3\DEBUG\STDAFX.OBJ
^C:\USERS\ADONIS\DOCUMENTS\UNI\GAMES PROGRAMMING\REPO\SPIKE4ATTEMPT3\SPIKE4ATTEMPT3\GAME.CPP
C:\USERS\ADONIS\DOCUMENTS\UNI\GAMES PROGRAMMING\REPO\SPIKE4ATTEMPT3\SPIKE4ATTEMPT3\DEBUG\VC140.PDB
^C:\USERS\ADONIS\DOCUMENTS\UNI\GAMES PROGRAMMING\REPO\SPIKE4ATTEMPT3\SPIKE4ATTEMPT3\GAMESTATE.CPP
C:\USERS\ADONIS\DOCUMENTS\UNI\GAMES PROGRAMMING\REPO\SPIKE4ATTEMPT3\SPIKE4ATTEMPT3\DEBUG\VC140.PDB
^C:\USERS\ADONIS\DOCUMENTS\UNI\GAMES PROGRAMMING\REPO\SPIKE4ATTEMPT3\SPIKE4ATTEMPT3\HIGHSCORES.CPP
C:\USERS\ADONIS\DOCUMENTS\UNI\GAMES PROGRAMMING\REPO\SPIKE4ATTEMPT3\SPIKE4ATTEMPT3\DEBUG\VC140.PDB
^C:\USERS\ADONIS\DOCUMENTS\UNI\GAMES PROGRAMMING\REPO\SPIKE4ATTEMPT3\SPIKE4ATTEMPT3\MENUEGAMESTATE.CPP
C:\USERS\ADONIS\DOCUMENTS\UNI\GAMES PROGRAMMING\REPO\SPIKE4ATTEMPT3\SPIKE4ATTEMPT3\DEBUG\VC140.PDB
^C:\USERS\ADONIS\DOCUMENTS\UNI\GAMES PROGRAMMING\REPO\SPIKE4ATTEMPT3\SPIKE4ATTEMPT3\SPIKE4ATTEMPT3.CPP
C:\USERS\ADONIS\DOCUMENTS\UNI\GAMES PROGRAMMING\REPO\SPIKE4ATTEMPT3\SPIKE4ATTEMPT3\DEBUG\VC140.PDB
^C:\USERS\ADONIS\DOCUMENTS\UNI\GAMES PROGRAMMING\REPO\SPIKE4ATTEMPT3\SPIKE4ATTEMPT3\STDAFX.CPP
C:\USERS\ADONIS\DOCUMENTS\UNI\GAMES PROGRAMMING\REPO\SPIKE4ATTEMPT3\SPIKE4ATTEMPT3\DEBUG\VC140.PDB
^C:\USERS\ADONIS\DOCUMENTS\UNI\GAMES PROGRAMMING\REPO\SPIKE4ATTEMPT3\SPIKE4ATTEMPT3\GAMESTATE.CPP|C:\USERS\ADONIS\DOCUMENTS\UNI\GAMES PROGRAMMING\REPO\SPIKE4ATTEMPT3\SPIKE4ATTEMPT3\HIGHSCORES.CPP|C:\USERS\ADONIS\DOCUMENTS\UNI\GAMES PROGRAMMING\REPO\SPIKE4ATTEMPT3\SPIKE4ATTEMPT3\MENUEGAMESTATE.CPP
C:\USERS\ADONIS\DOCUMENTS\UNI\GAMES PROGRAMMING\REPO\SPIKE4ATTEMPT3\SPIKE4ATTEMPT3\DEBUG\VC140.PDB
C:\USERS\ADONIS\DOCUMENTS\UNI\GAMES PROGRAMMING\REPO\SPIKE4ATTEMPT3\SPIKE4ATTEMPT3\DEBUG\VC140.IDB
C:\USERS\ADONIS\DOCUMENTS\UNI\GAMES PROGRAMMING\REPO\SPIKE4ATTEMPT3\SPIKE4ATTEMPT3\DEBUG\GAMESTATE.OBJ
C:\USERS\ADONIS\DOCUMENTS\UNI\GAMES PROGRAMMING\REPO\SPIKE4ATTEMPT3\SPIKE4ATTEMPT3\DEBUG\HIGHSCORES.OBJ
C:\USERS\ADONIS\DOCUMENTS\UNI\GAMES PROGRAMMING\REPO\SPIKE4ATTEMPT3\SPIKE4ATTEMPT3\DEBUG\MENUEGAMESTATE.OBJ
^C:\USERS\ADONIS\DOCUMENTS\UNI\GAMES PROGRAMMING\REPO\SPIKE4ATTEMPT3\SPIKE4ATTEMPT3\GAME.CPP|C:\USERS\ADONIS\DOCUMENTS\UNI\GAMES PROGRAMMING\REPO\SPIKE4ATTEMPT3\SPIKE4ATTEMPT3\HIGHSCORES.CPP|C:\USERS\ADONIS\DOCUMENTS\UNI\GAMES PROGRAMMING\REPO\SPIKE4ATTEMPT3\SPIKE4ATTEMPT3\MENUEGAMESTATE.CPP|C:\USERS\ADONIS\DOCUMENTS\UNI\GAMES PROGRAMMING\REPO\SPIKE4ATTEMPT3\SPIKE4ATTEMPT3\SPIKE4ATTEMPT3.CPP
C:\USERS\ADONIS\DOCUMENTS\UNI\GAMES PROGRAMMING\REPO\SPIKE4ATTEMPT3\SPIKE4ATTEMPT3\DEBUG\VC140.PDB
C:\USERS\ADONIS\DOCUMENTS\UNI\GAMES PROGRAMMING\REPO\SPIKE4ATTEMPT3\SPIKE4ATTEMPT3\DEBUG\VC140.IDB
C:\USERS\ADONIS\DOCUMENTS\UNI\GAMES PROGRAMMING\REPO\SPIKE4ATTEMPT3\SPIKE4ATTEMPT3\DEBUG\SPIKE4ATTEMPT3.OBJ
C:\USERS\ADONIS\DOCUMENTS\UNI\GAMES PROGRAMMING\REPO\SPIKE4ATTEMPT3\SPIKE4ATTEMPT3\DEBUG\GAME.OBJ
C:\USERS\ADONIS\DOCUMENTS\UNI\GAMES PROGRAMMING\REPO\SPIKE4ATTEMPT3\SPIKE4ATTEMPT3\DEBUG\HIGHSCORES.OBJ
C:\USERS\ADONIS\DOCUMENTS\UNI\GAMES PROGRAMMING\REPO\SPIKE4ATTEMPT3\SPIKE4ATTEMPT3\DEBUG\MENUEGAMESTATE.OBJ
^C:\USERS\ADONIS\DOCUMENTS\UNI\GAMES PROGRAMMING\REPO\SPIKE4ATTEMPT3\SPIKE4ATTEMPT3\GAME.CPP|C:\USERS\ADONIS\DOCUMENTS\UNI\GAMES PROGRAMMING\REPO\SPIKE4ATTEMPT3\SPIKE4ATTEMPT3\HIGHSCORES.CPP|C:\USERS\ADONIS\DOCUMENTS\UNI\GAMES PROGRAMMING\REPO\SPIKE4ATTEMPT3\SPIKE4ATTEMPT3\SPIKE4ATTEMPT3.CPP
C:\USERS\ADONIS\DOCUMENTS\UNI\GAMES PROGRAMMING\REPO\SPIKE4ATTEMPT3\SPIKE4ATTEMPT3\DEBUG\VC140.PDB
C:\USERS\ADONIS\DOCUMENTS\UNI\GAMES PROGRAMMING\REPO\SPIKE4ATTEMPT3\SPIKE4ATTEMPT3\DEBUG\VC140.IDB
C:\USERS\ADONIS\DOCUMENTS\UNI\GAMES PROGRAMMING\REPO\SPIKE4ATTEMPT3\SPIKE4ATTEMPT3\DEBUG\GAME.OBJ
C:\USERS\ADONIS\DOCUMENTS\UNI\GAMES PROGRAMMING\REPO\SPIKE4ATTEMPT3\SPIKE4ATTEMPT3\DEBUG\SPIKE4ATTEMPT3.OBJ
C:\USERS\ADONIS\DOCUMENTS\UNI\GAMES PROGRAMMING\REPO\SPIKE4ATTEMPT3\SPIKE4ATTEMPT3\DEBUG\HIGHSCORES.OBJ
^C:\USERS\ADONIS\DOCUMENTS\UNI\GAMES PROGRAMMING\REPO\SPIKE4ATTEMPT3\SPIKE4ATTEMPT3\GAMESTATE.CPP|C:\USERS\ADONIS\DOCUMENTS\UNI\GAMES PROGRAMMING\REPO\SPIKE4ATTEMPT3\SPIKE4ATTEMPT3\MENUEGAMESTATE.CPP|C:\USERS\ADONIS\DOCUMENTS\UNI\GAMES PROGRAMMING\REPO\SPIKE4ATTEMPT3\SPIKE4ATTEMPT3\SPIKE4ATTEMPT3.CPP
C:\USERS\ADONIS\DOCUMENTS\UNI\GAMES PROGRAMMING\REPO\SPIKE4ATTEMPT3\SPIKE4ATTEMPT3\DEBUG\VC140.PDB
C:\USERS\ADONIS\DOCUMENTS\UNI\GAMES PROGRAMMING\REPO\SPIKE4ATTEMPT3\SPIKE4ATTEMPT3\DEBUG\VC140.IDB
C:\USERS\ADONIS\DOCUMENTS\UNI\GAMES PROGRAMMING\REPO\SPIKE4ATTEMPT3\SPIKE4ATTEMPT3\DEBUG\SPIKE4ATTEMPT3.OBJ
^C:\USERS\ADONIS\DOCUMENTS\UNI\GAMES PROGRAMMING\REPO\SPIKE4ATTEMPT3\SPIKE4ATTEMPT3\ABOUTCLASS.CPP
C:\USERS\ADONIS\DOCUMENTS\UNI\GAMES PROGRAMMING\REPO\SPIKE4ATTEMPT3\SPIKE4ATTEMPT3\DEBUG\VC140.PDB
C:\USERS\ADONIS\DOCUMENTS\UNI\GAMES PROGRAMMING\REPO\SPIKE4ATTEMPT3\SPIKE4ATTEMPT3\DEBUG\VC140.IDB
C:\USERS\ADONIS\DOCUMENTS\UNI\GAMES PROGRAMMING\REPO\SPIKE4ATTEMPT3\SPIKE4ATTEMPT3\DEBUG\ABOUTCLASS.OBJ
^C:\USERS\ADONIS\DOCUMENTS\UNI\GAMES PROGRAMMING\REPO\SPIKE4ATTEMPT3\SPIKE4ATTEMPT3\HIGHSCORES.CPP|C:\USERS\ADONIS\DOCUMENTS\UNI\GAMES PROGRAMMING\REPO\SPIKE4ATTEMPT3\SPIKE4ATTEMPT3\SPIKE4ATTEMPT3.CPP
C:\USERS\ADONIS\DOCUMENTS\UNI\GAMES PROGRAMMING\REPO\SPIKE4ATTEMPT3\SPIKE4ATTEMPT3\DEBUG\VC140.PDB
C:\USERS\ADONIS\DOCUMENTS\UNI\GAMES PROGRAMMING\REPO\SPIKE4ATTEMPT3\SPIKE4ATTEMPT3\DEBUG\VC140.IDB
C:\USERS\ADONIS\DOCUMENTS\UNI\GAMES PROGRAMMING\REPO\SPIKE4ATTEMPT3\SPIKE4ATTEMPT3\DEBUG\HIGHSCORES.OBJ
C:\USERS\ADONIS\DOCUMENTS\UNI\GAMES PROGRAMMING\REPO\SPIKE4ATTEMPT3\SPIKE4ATTEMPT3\DEBUG\SPIKE4ATTEMPT3.OBJ
^C:\USERS\ADONIS\DOCUMENTS\UNI\GAMES PROGRAMMING\REPO\SPIKE4ATTEMPT3\SPIKE4ATTEMPT3\GAME.CPP|C:\USERS\ADONIS\DOCUMENTS\UNI\GAMES PROGRAMMING\REPO\SPIKE4ATTEMPT3\SPIKE4ATTEMPT3\HELPCLASS.CPP|C:\USERS\ADONIS\DOCUMENTS\UNI\GAMES PROGRAMMING\REPO\SPIKE4ATTEMPT3\SPIKE4ATTEMPT3\HIGHSCORES.CPP|C:\USERS\ADONIS\DOCUMENTS\UNI\GAMES PROGRAMMING\REPO\SPIKE4ATTEMPT3\SPIKE4ATTEMPT3\SPIKE4ATTEMPT3.CPP
C:\USERS\ADONIS\DOCUMENTS\UNI\GAMES PROGRAMMING\REPO\SPIKE4ATTEMPT3\SPIKE4ATTEMPT3\DEBUG\VC140.PDB
C:\USERS\ADONIS\DOCUMENTS\UNI\GAMES PROGRAMMING\REPO\SPIKE4ATTEMPT3\SPIKE4ATTEMPT3\DEBUG\VC140.IDB
C:\USERS\ADONIS\DOCUMENTS\UNI\GAMES PROGRAMMING\REPO\SPIKE4ATTEMPT3\SPIKE4ATTEMPT3\DEBUG\GAME.OBJ
C:\USERS\ADONIS\DOCUMENTS\UNI\GAMES PROGRAMMING\REPO\SPIKE4ATTEMPT3\SPIKE4ATTEMPT3\DEBUG\SPIKE4ATTEMPT3.OBJ
^C:\USERS\ADONIS\DOCUMENTS\UNI\GAMES PROGRAMMING\REPO\SPIKE4ATTEMPT3\SPIKE4ATTEMPT3\HELPCLASS.CPP
C:\USERS\ADONIS\DOCUMENTS\UNI\GAMES PROGRAMMING\REPO\SPIKE4ATTEMPT3\SPIKE4ATTEMPT3\DEBUG\VC140.PDB
C:\USERS\ADONIS\DOCUMENTS\UNI\GAMES PROGRAMMING\REPO\SPIKE4ATTEMPT3\SPIKE4ATTEMPT3\DEBUG\VC140.IDB
C:\USERS\ADONIS\DOCUMENTS\UNI\GAMES PROGRAMMING\REPO\SPIKE4ATTEMPT3\SPIKE4ATTEMPT3\DEBUG\HELPCLASS.OBJ
^C:\USERS\ADONIS\DOCUMENTS\UNI\GAMES PROGRAMMING\REPO\SPIKE4ATTEMPT3\SPIKE4ATTEMPT3\ABOUTCLASS.CPP|C:\USERS\ADONIS\DOCUMENTS\UNI\GAMES PROGRAMMING\REPO\SPIKE4ATTEMPT3\SPIKE4ATTEMPT3\ADVENTURECLASS.CPP|C:\USERS\ADONIS\DOCUMENTS\UNI\GAMES PROGRAMMING\REPO\SPIKE4ATTEMPT3\SPIKE4ATTEMPT3\GAME.CPP|C:\USERS\ADONIS\DOCUMENTS\UNI\GAMES PROGRAMMING\REPO\SPIKE4ATTEMPT3\SPIKE4ATTEMPT3\HIGHSCORES.CPP|C:\USERS\ADONIS\DOCUMENTS\UNI\GAMES PROGRAMMING\REPO\SPIKE4ATTEMPT3\SPIKE4ATTEMPT3\SELECTADVENTURE.CPP|C:\USERS\ADONIS\DOCUMENTS\UNI\GAMES PROGRAMMING\REPO\SPIKE4ATTEMPT3\SPIKE4ATTEMPT3\SPIKE4ATTEMPT3.CPP
C:\USERS\ADONIS\DOCUMENTS\UNI\GAMES PROGRAMMING\REPO\SPIKE4ATTEMPT3\SPIKE4ATTEMPT3\DEBUG\VC140.PDB
C:\USERS\ADONIS\DOCUMENTS\UNI\GAMES PROGRAMMING\REPO\SPIKE4ATTEMPT3\SPIKE4ATTEMPT3\DEBUG\VC140.IDB
C:\USERS\ADONIS\DOCUMENTS\UNI\GAMES PROGRAMMING\REPO\SPIKE4ATTEMPT3\SPIKE4ATTEMPT3\DEBUG\ADVENTURECLASS.OBJ
C:\USERS\ADONIS\DOCUMENTS\UNI\GAMES PROGRAMMING\REPO\SPIKE4ATTEMPT3\SPIKE4ATTEMPT3\DEBUG\SELECTADVENTURE.OBJ
C:\USERS\ADONIS\DOCUMENTS\UNI\GAMES PROGRAMMING\REPO\SPIKE4ATTEMPT3\SPIKE4ATTEMPT3\DEBUG\ABOUTCLASS.OBJ
C:\USERS\ADONIS\DOCUMENTS\UNI\GAMES PROGRAMMING\REPO\SPIKE4ATTEMPT3\SPIKE4ATTEMPT3\DEBUG\GAME.OBJ
C:\USERS\ADONIS\DOCUMENTS\UNI\GAMES PROGRAMMING\REPO\SPIKE4ATTEMPT3\SPIKE4ATTEMPT3\DEBUG\SPIKE4ATTEMPT3.OBJ
^C:\USERS\ADONIS\DOCUMENTS\UNI\GAMES PROGRAMMING\REPO\SPIKE4ATTEMPT3\SPIKE4ATTEMPT3\ADVENTURECLASS.CPP
C:\USERS\ADONIS\DOCUMENTS\UNI\GAMES PROGRAMMING\REPO\SPIKE4ATTEMPT3\SPIKE4ATTEMPT3\DEBUG\VC140.PDB
^C:\USERS\ADONIS\DOCUMENTS\UNI\GAMES PROGRAMMING\REPO\SPIKE4ATTEMPT3\SPIKE4ATTEMPT3\SELECTADVENTURE.CPP
C:\USERS\ADONIS\DOCUMENTS\UNI\GAMES PROGRAMMING\REPO\SPIKE4ATTEMPT3\SPIKE4ATTEMPT3\DEBUG\VC140.PDB
^C:\USERS\ADONIS\DOCUMENTS\UNI\GAMES PROGRAMMING\REPO\SPIKE4ATTEMPT3\SPIKE4ATTEMPT3\HALLOFFAME.CPP
C:\USERS\ADONIS\DOCUMENTS\UNI\GAMES PROGRAMMING\REPO\SPIKE4ATTEMPT3\SPIKE4ATTEMPT3\DEBUG\VC140.PDB
C:\USERS\ADONIS\DOCUMENTS\UNI\GAMES PROGRAMMING\REPO\SPIKE4ATTEMPT3\SPIKE4ATTEMPT3\DEBUG\VC140.IDB
C:\USERS\ADONIS\DOCUMENTS\UNI\GAMES PROGRAMMING\REPO\SPIKE4ATTEMPT3\SPIKE4ATTEMPT3\DEBUG\HALLOFFAME.OBJ
